<?xml version="1.0" encoding="UTF-8" standalone="no"?>
<svg
   xmlns:dc="http://purl.org/dc/elements/1.1/"
   xmlns:cc="http://creativecommons.org/ns#"
   xmlns:rdf="http://www.w3.org/1999/02/22-rdf-syntax-ns#"
   xmlns:svg="http://www.w3.org/2000/svg"
   xmlns="http://www.w3.org/2000/svg"
   viewBox="0 0 1133.3334 400"
   height="300pt"
   width="850pt"
   xml:space="preserve"
   id="svg2"
   version="1.1"><metadata
     id="metadata8"><rdf:RDF><cc:Work
         rdf:about=""><dc:format>image/svg+xml</dc:format><dc:type
           rdf:resource="http://purl.org/dc/dcmitype/StillImage" /><dc:title></dc:title></cc:Work></rdf:RDF></metadata><defs
     id="defs6" /><g
     transform="matrix(1.3333333,0,0,-1.3333333,0,400)"
     id="g10"><rect
       transform="scale(1,-1)"
       y="-300"
       x="-3.5527137e-15"
       height="300"
       width="850.00006"
       id="rect4836"
       style="color:#000000;clip-rule:nonzero;display:inline;overflow:visible;visibility:visible;opacity:1;isolation:auto;mix-blend-mode:normal;color-interpolation:sRGB;color-interpolation-filters:linearRGB;solid-color:#000000;solid-opacity:1;vector-effect:none;fill:none;fill-opacity:1;fill-rule:nonzero;stroke:none;stroke-width:0;stroke-linecap:butt;stroke-linejoin:miter;stroke-miterlimit:4;stroke-dasharray:none;stroke-dashoffset:0;stroke-opacity:1;marker:none;paint-order:fill markers stroke;color-rendering:auto;image-rendering:auto;shape-rendering:auto;text-rendering:auto;enable-background:accumulate" /><g
       transform="scale(0.1)"
       id="g12"><path
         id="path14"
         style="fill:#000000;fill-opacity:1;fill-rule:evenodd;stroke:none"
         d="m 2704.49,1926.17 v -94.37 c -70,47.65 -139.26,71.48 -207.77,71.48 -74.45,0 -134.61,-25.31 -180.39,-75.94 -28.67,-31.68 -48.24,-66.48 -58.67,-104.45 -13.01,-45.82 -19.54,-96.44 -19.54,-151.91 0,-114.3 25.71,-199.38 77.08,-255.24 43.2,-47.3 99.96,-70.94 170.35,-70.94 40.93,0 80.23,10.63 117.85,31.84 v 297.7 c 0,13.75 -1.49,26.05 -4.49,36.83 h 132.93 c -2.97,-11.52 -4.46,-23.83 -4.46,-36.83 v -293.25 c 0.39,-17.11 2.78,-32.38 7.27,-45.78 -68.52,-22.34 -118.6,-36.68 -150.24,-43.01 -31.29,-6.32 -68.9,-9.49 -112.85,-9.49 -79.29,0 -144.06,14.14 -194.33,42.46 -60.32,33.87 -105.55,83.56 -135.71,149.11 -26.44,57.34 -39.68,123.43 -39.68,198.28 0,132.93 41.32,235.31 124.02,307.14 66.64,58.48 155.08,87.7 265.27,87.7 67.03,0 138.13,-13.75 213.36,-41.33" /><path
         id="path16"
         style="fill:#000000;fill-opacity:1;fill-rule:evenodd;stroke:none"
         d="m 2868.67,1789.34 h 118.99 v -83.21 c 17.85,27.93 35.89,48.4 54.14,61.45 34.25,23.83 77.65,35.74 130.15,35.74 67.78,0 119.14,-20.66 154.14,-61.99 22.35,-26.45 33.52,-63.32 33.52,-110.59 v -399.88 c 0,-12.31 1.48,-24.61 4.45,-36.88 H 3238.4 c 2.97,9.3 4.49,21.61 4.49,36.88 v 382.54 c 0,33.9 -9.88,60.15 -29.61,78.75 -19.73,18.63 -47.85,27.93 -84.33,27.93 -45.43,0 -79.69,-12.66 -102.78,-37.97 -24.18,-26.8 -36.29,-61.25 -36.29,-103.32 v -347.93 c 0,-13.05 1.49,-25.35 4.46,-36.88 h -125.67 c 2.97,10.79 4.49,23.09 4.49,36.88 v 522.19 c 0,12.65 -1.52,24.76 -4.49,36.29" /><path
         id="path18"
         style="fill:#000000;fill-opacity:1;fill-rule:evenodd;stroke:none"
         d="m 3880.7,1193.98 v 81.53 c -21.25,-29.03 -41.72,-49.89 -61.44,-62.54 -31.29,-19.73 -70.55,-29.61 -117.85,-29.61 -63.68,0 -112.62,18.09 -146.88,54.18 -28.32,29.8 -42.46,72.81 -42.46,129.02 v 386.49 c 0,12.65 -1.48,24.76 -4.45,36.29 h 125.66 c -3.01,-10.43 -4.49,-22.5 -4.49,-36.29 v -373.64 c 0,-32.03 7.66,-57.53 22.93,-76.52 20.08,-24.22 50.23,-36.29 90.47,-36.29 40.58,0 73.36,11.52 98.28,34.61 25.31,23.48 37.97,53.79 37.97,91.06 v 360.78 c 0,13.04 -1.49,25.11 -4.46,36.29 h 125.67 c -2.97,-9.69 -4.45,-21.76 -4.45,-36.29 v -522.19 c 0,-11.91 1.48,-24.22 4.45,-36.88 H 3880.7" /><path
         id="path20"
         style="fill:#000000;fill-opacity:1;fill-rule:evenodd;stroke:none"
         d="m 4285.59,1521.84 v -290.98 c 0,-10.82 1.87,-23.09 5.58,-36.88 h -137.93 c 3.36,11.53 5.04,23.83 5.04,36.88 v 688.05 c 0,13.79 -1.68,26.25 -5.04,37.42 h 244.06 c 59.58,0 110.04,-11.92 151.37,-35.74 63.28,-37.23 94.92,-95.51 94.92,-174.81 0,-87.85 -38.51,-151.17 -115.58,-189.88 -45.08,-22.74 -98.87,-34.06 -161.41,-34.06 z m 0,58.63 h 68.16 c 37.23,0 67.19,6.68 89.92,20.12 21.6,13 38.71,32.38 51.37,58.08 12.66,25.67 18.98,54.14 18.98,85.43 0,48.4 -13.4,86.41 -40.19,113.95 -26.45,27.93 -62.93,41.87 -109.49,41.87 h -78.75 v -319.45" /><path
         id="path22"
         style="fill:#000000;fill-opacity:1;fill-rule:evenodd;stroke:none"
         d="m 5311.56,1926.17 v -94.37 c -70,47.65 -139.26,71.48 -207.73,71.48 -74.49,0 -134.61,-25.31 -180.43,-75.94 -28.67,-31.68 -48.2,-66.48 -58.63,-104.45 -13.01,-45.82 -19.54,-96.44 -19.54,-151.91 0,-114.3 25.67,-199.38 77.07,-255.24 43.17,-47.3 99.97,-70.94 170.36,-70.94 40.93,0 80.23,10.63 117.81,31.84 v 297.7 c 0,13.75 -1.49,26.05 -4.45,36.83 h 132.93 c -2.97,-11.52 -4.46,-23.83 -4.46,-36.83 v -293.25 c 0.35,-17.11 2.78,-32.38 7.23,-45.78 -68.48,-22.34 -118.56,-36.68 -150.24,-43.01 -31.25,-6.32 -68.86,-9.49 -112.81,-9.49 -79.29,0 -144.1,14.14 -194.33,42.46 -60.36,33.87 -105.59,83.56 -135.75,149.11 -26.44,57.34 -39.64,123.43 -39.64,198.28 0,132.93 41.32,235.31 123.98,307.14 66.64,58.48 155.08,87.7 265.31,87.7 66.99,0 138.13,-13.75 213.32,-41.33" /><path
         id="path24"
         style="fill:#000000;fill-opacity:1;fill-rule:evenodd;stroke:none"
         d="m 5553.4,1318.52 c 22.34,0 40.78,-6.33 55.31,-18.99 14.49,-12.26 21.76,-28.08 21.76,-47.46 0,-18.98 -7.27,-34.8 -21.76,-47.46 -14.53,-12.31 -32.77,-18.44 -54.76,-18.44 -22.31,0 -40.75,6.13 -55.28,18.44 -14.14,12.66 -21.21,28.83 -21.21,48.55 0,18.64 7.07,34.11 21.21,46.37 14.53,12.31 32.78,18.63 54.73,18.99" /><path
         id="path26"
         style="fill:#000000;fill-opacity:1;fill-rule:evenodd;stroke:none"
         d="m 6186.76,1225.82 c -43.95,-18.63 -75.39,-30.35 -94.42,-35.2 -18.98,-4.84 -43.71,-7.26 -74.25,-7.26 -84.14,0 -149.3,26.09 -195.47,78.2 -49.14,55.47 -73.75,130.12 -73.75,223.95 0,107.22 31.09,189.72 93.28,247.42 51.01,46.91 117.85,70.39 200.51,70.39 45.43,0 93.43,-8.59 144.1,-25.7 v -87.11 c -28.32,22.3 -52.15,37.42 -71.49,45.23 -18.98,8.17 -40.78,12.27 -65.35,12.27 -54.37,0 -96.64,-22.35 -126.8,-67.03 -32.38,-47.27 -48.59,-109.81 -48.59,-187.66 0,-67.73 12.31,-124.53 36.88,-170.31 28.28,-52.5 72.22,-78.75 131.79,-78.75 25.71,0 49.34,4.65 70.94,13.94 21.6,9.69 45.82,26.25 72.62,49.73 v -82.11" /><path
         id="path28"
         style="fill:#000000;fill-opacity:1;fill-rule:evenodd;stroke:none"
         d="m 6536.91,1803.32 c 88.25,0 156.96,-29.8 206.1,-89.37 46.17,-55.86 69.26,-129.57 69.26,-221.18 0,-97.54 -26.45,-174.41 -79.3,-230.66 -49.14,-52.5 -114.14,-78.75 -194.92,-78.75 -86.76,0 -153.95,28.67 -201.6,86.02 -49.18,58.82 -73.75,136.28 -73.75,232.34 0,87.85 24.21,159.92 72.61,216.13 48.05,55.86 115.24,84.34 201.6,85.47 z m 0.59,-49.73 c -20.86,0 -40.98,-5.58 -60.31,-16.75 -19.38,-11.18 -34.81,-26.25 -46.37,-45.24 -30.16,-48.79 -45.23,-114.1 -45.23,-196.01 0,-84.54 15.27,-151.57 45.78,-201.1 11.56,-18.59 26.83,-33.47 45.82,-44.65 19.33,-11.17 39.45,-16.75 60.31,-16.75 20.86,0 40.78,5.58 59.77,16.75 19.33,11.18 34.8,26.06 46.36,44.65 30.51,49.53 45.78,115.82 45.78,198.83 0,84.18 -15.27,150.63 -45.78,199.41 -24.96,39.85 -60.35,60.12 -106.13,60.86" /><path
         id="path30"
         style="fill:#000000;fill-opacity:1;fill-rule:evenodd;stroke:none"
         d="m 7046.84,1721.21 c 43.2,54.73 100,82.11 170.35,82.11 39.1,0 71.29,-6.52 96.64,-19.57 25.66,-13.01 47.07,-33.87 64.22,-62.54 28.67,30.16 56.6,51.37 83.79,63.67 27.14,12.27 59.57,18.44 97.14,18.44 114.69,0 172.04,-55.66 172.04,-166.99 v -405.47 c 0,-13.05 1.48,-25.35 4.45,-36.88 H 7609.8 c 3.01,11.53 4.5,23.83 4.5,36.88 v 385.9 c 0,31.64 -5.24,54.92 -15.67,69.84 -15.62,22.31 -43.9,33.48 -84.88,33.48 -39.45,0 -70.2,-10.24 -92.15,-30.7 -21.6,-20.12 -32.38,-48.79 -32.38,-86.02 v -372.5 c 0,-13.79 1.48,-26.09 4.45,-36.88 h -125.66 c 2.97,10.79 4.49,23.09 4.49,36.88 v 385.9 c 0,31.64 -5.59,54.72 -16.76,69.26 -17.5,22.73 -45.08,34.06 -82.65,34.06 -37.27,0 -67.23,-9.85 -89.93,-29.57 -22.73,-19.77 -34.1,-45.82 -34.1,-78.21 v -381.44 c 0,-13.05 1.53,-25.35 4.49,-36.88 h -125.66 c 2.97,11.53 4.45,23.83 4.45,36.88 v 522.19 c 0,13.79 -1.48,25.86 -4.45,36.29 h 118.95 v -68.13" /><path
         id="path32"
         style="fill:#000000;fill-opacity:1;fill-rule:evenodd;stroke:none"
         d="m 2184.61,991.801 -70.16,-192.742 h 27.74 l 18.71,53.211 h 81.25 l 18.71,-53.211 h 29.06 l -0.43,1.293 -69.72,191.449 z m 16.95,-25.903 32.11,-89.957 h -64.37 z" /><path
         id="path34"
         style="fill:#000000;fill-opacity:1;fill-rule:evenodd;stroke:none"
         d="M 2406.95,1000.39 V 799.059 h 24.26 l 1.45,6.332 c 5.58,-2.969 11.25,-5.512 16.99,-7.301 6.17,-2 13.4,-3.008 21.6,-3.008 8.83,0 16.95,1.719 24.34,5.117 7.38,3.473 14.14,8.672 20.27,15.5 h 0.08 c 5.82,6.571 10.35,14.731 13.71,24.422 3.36,9.41 4.96,20.039 5.04,31.641 h 0.19 v 0.937 c 0,23.821 -4.96,42.34 -14.96,55.539 -9.92,13.211 -23.59,19.883 -40.74,19.883 -9.61,0 -18.28,-1.832 -26.02,-5.5 -7.14,-3.281 -13.82,-7.699 -20.23,-12.781 v 70.55 z m 66.33,-77.109 c 12.34,0 21.06,-4.301 26.52,-12.929 5.51,-8.551 8.32,-21.332 8.32,-38.282 0,-18.59 -3.82,-32.109 -11.21,-40.66 -7.34,-8.519 -17.42,-12.781 -30.54,-12.781 -6.17,0 -11.72,0.59 -16.57,1.762 h -0.07 c -4.61,1.129 -10.32,3.238 -16.84,6.129 v 80.859 c 6.02,4.609 12.46,8.441 19.45,11.332 7.07,3.051 14.07,4.57 20.9,4.57 h 0.04" /><path
         id="path36"
         style="fill:#000000;fill-opacity:1;fill-rule:evenodd;stroke:none"
         d="M 2570.51,944.141 V 799.059 h 25.97 v 102.113 c 6.25,5.039 12.74,9.18 19.46,12.348 6.83,3.281 13.86,4.921 21.17,4.921 4.57,0 8.51,-0.242 11.8,-0.671 3.36,-0.309 6.83,-0.93 10.39,-1.75 h 2.46 v 26.402 l -0.78,0.16 c -3.79,0.578 -6.64,0.969 -8.52,1.168 -1.99,0.27 -5,0.391 -9.22,0.391 -7.73,0 -15.35,-1.641 -22.81,-4.922 -6.95,-3.047 -15.04,-8.481 -23.95,-15.508 v 20.43 h -25.97" /><path
         id="path38"
         style="fill:#000000;fill-opacity:1;fill-rule:evenodd;stroke:none"
         d="m 2728.36,947.621 c -8.71,0 -17.5,-0.781 -26.41,-2.312 -8.9,-1.559 -15.74,-2.969 -20.5,-4.289 l -0.71,-0.161 V 914.73 h 2.38 l 0.16,0.071 c 8.24,3.129 16.25,5.551 23.99,7.148 7.69,1.68 14.72,2.5 20.97,2.5 5.16,0 10.08,-0.347 14.81,-1.008 4.72,-0.671 8.67,-1.921 11.99,-3.832 3.44,-1.949 6.01,-4.687 7.85,-8.129 1.88,-3.429 2.81,-7.769 2.81,-13.121 v -2.808 c -13.67,-0.711 -26.56,-1.719 -38.51,-3.051 -12.31,-1.371 -22.85,-3.98 -31.68,-7.891 -8.75,-3.871 -15.55,-9.3 -20.35,-16.211 -4.77,-6.839 -7.11,-15.859 -7.11,-26.839 0,-13.438 4.57,-24.61 13.71,-33.321 9.14,-8.707 20.39,-13.078 33.51,-13.078 7.07,0 13.25,0.66 18.56,2.07 5.27,1.29 9.92,2.93 13.98,4.918 3.52,1.563 7.07,3.672 10.71,6.25 3.04,2.192 5.23,3.711 7.18,5.082 v -14.378 h 25.86 v 98.089 c 0,9.329 -1.44,17.188 -4.33,23.59 -2.85,6.367 -7.07,11.598 -12.58,15.629 -5.59,4.059 -12.23,6.988 -19.85,8.629 -7.5,1.723 -16.32,2.621 -26.44,2.621 z m 37.34,-73.48 v -38.36 c -5.82,-4.449 -12.11,-8.32 -18.94,-11.562 -6.88,-3.199 -14.46,-4.84 -22.78,-4.84 -10.03,0 -17.38,2.101 -22.1,5.973 -4.69,4.027 -7.08,9.847 -7.08,17.847 0,7.071 2.08,12.461 6.14,16.371 4.14,4.059 9.61,7.11 16.4,9.02 5.71,1.609 13.52,2.82 23.4,3.68 9.61,0.82 17.81,1.441 24.96,1.871" /><path
         id="path40"
         style="fill:#000000;fill-opacity:1;fill-rule:evenodd;stroke:none"
         d="m 2909.73,948.121 c -8.6,0 -17,-1.75 -25.16,-5.312 -7.58,-3.321 -14.88,-8.118 -22.03,-13.86 v 15.192 H 2836.6 V 799.059 h 25.94 v 107.39 c 6.44,4.883 13.12,8.903 20.12,12.071 7.07,3.199 13.82,4.8 20.23,4.8 6.33,0 11.41,-0.941 15.23,-2.66 h 0.08 c 3.83,-1.64 6.68,-4.101 8.75,-7.539 l 0.04,-0.031 c 1.96,-3.09 3.32,-7.469 4.1,-13.211 0.79,-5.66 1.18,-11.758 1.18,-18.32 v -82.5 h 25.93 V 800 l -0.04,92.969 c 0,17.652 -4.1,31.332 -12.38,40.863 -8.32,9.527 -20.39,14.289 -36.05,14.289" /><path
         id="path42"
         style="fill:#000000;fill-opacity:1;fill-rule:evenodd;stroke:none"
         d="m 3094.77,1000.39 v -61.558 c -5.94,2.969 -11.68,5.348 -17.11,6.789 h -0.08 c -5.9,1.649 -12.66,2.5 -20.24,2.5 -8.39,0 -16.56,-1.75 -24.45,-5.23 -7.81,-3.442 -14.69,-8.512 -20.59,-15.082 -5.97,-6.758 -10.74,-14.957 -14.29,-24.528 -3.48,-9.609 -5.16,-20.551 -5.16,-32.769 0,-23.481 5,-41.883 15.2,-55.282 10.23,-13.351 24.18,-20.148 41.48,-20.148 8.95,0 17.23,1.719 24.88,5.117 7.07,3.121 13.79,7.692 20.32,13.121 v -14.261 h 25.97 v 201.331 z m -33.29,-76.171 c 5.98,0 11.57,-0.59 16.61,-1.68 4.88,-1.059 10.46,-3.09 16.68,-5.82 v -80.938 c -5.94,-4.609 -12.27,-8.48 -19.07,-11.441 -6.91,-2.969 -13.67,-4.379 -20.39,-4.379 -12.58,0 -21.52,4.258 -27.19,12.769 -5.62,8.68 -8.51,21.45 -8.51,38.321 0,17.109 3.75,30.238 11.09,39.418 7.35,9.179 17.5,13.75 30.78,13.75" /><path
         id="path44"
         style="fill:#000000;fill-opacity:1;fill-rule:evenodd;stroke:none"
         d="m 3315.47,948.121 c -20.43,0 -36.84,-6.91 -48.99,-20.699 -12.03,-13.711 -18.04,-32.383 -18.04,-55.863 0,-23.469 6.01,-42.18 18.04,-55.86 12.15,-13.711 28.56,-20.617 48.99,-20.617 20.31,0 36.64,6.906 48.79,20.617 12.15,13.68 18.2,32.391 18.2,55.86 0,23.48 -6.05,42.152 -18.2,55.863 -12.15,13.789 -28.48,20.699 -48.79,20.699 z m 0,-22.652 c 12.69,0 22.5,-4.379 29.57,-13.199 7.07,-8.75 10.7,-22.309 10.7,-40.711 0,-18.008 -3.71,-31.438 -10.86,-40.43 -7.11,-8.938 -16.79,-13.399 -29.41,-13.399 -12.74,0 -22.5,4.5 -29.61,13.52 -7.07,9.059 -10.7,22.5 -10.7,40.309 0,18.402 3.63,31.961 10.58,40.711 7.11,8.82 16.88,13.199 29.73,13.199" /><path
         id="path46"
         style="fill:#000000;fill-opacity:1;fill-rule:evenodd;stroke:none"
         d="m 3469.57,1001.64 c -16.17,0 -28.67,-4.652 -37.3,-13.98 -8.68,-9.301 -12.97,-22.621 -12.97,-39.769 v -3.75 h -16.29 v -22.153 h 16.29 V 799.059 h 25.97 v 122.929 h 42.66 v 22.153 h -43.44 v 3.91 c 0,11.871 2.31,19.801 6.64,24.058 4.46,4.34 11.72,6.68 21.92,6.68 3.16,0 6.83,-0.43 11.09,-1.289 h 0.04 c 4.26,-0.738 7.66,-1.48 10.23,-2.27 l 0.2,-0.031 h 2.3 v 23.75 l -0.78,0.153 c -3.59,0.699 -7.58,1.248 -11.95,1.798 -4.34,0.51 -9.22,0.74 -14.61,0.74" /><path
         id="path48"
         style="fill:#000000;fill-opacity:1;fill-rule:evenodd;stroke:none"
         d="m 3656.99,948.121 c -8.01,0 -16.05,-1.75 -24.1,-5.23 -8.05,-3.36 -14.96,-8.161 -20.59,-14.34 -6.09,-6.563 -10.85,-14.371 -14.41,-23.43 -3.48,-9.031 -5.19,-19.812 -5.19,-32.191 0,-22.621 5.03,-40.27 15.23,-52.848 10.23,-12.5 24.14,-18.793 41.45,-18.793 10.35,0 18.9,1.371 25.62,4.262 6.29,2.73 12.85,7.031 19.61,12.301 v -11.403 c 0,-5.75 -0.63,-10.898 -1.88,-15.508 h -0.07 c -1.25,-4.57 -3.32,-8.48 -6.21,-11.679 -2.86,-3.364 -6.92,-6.063 -12.19,-7.973 -5.24,-1.91 -11.92,-2.891 -20.04,-2.891 -8.44,0 -16.92,1.172 -25.39,3.442 -8.56,2.219 -14.77,4.101 -18.63,5.582 l -0.16,0.078 h -2.38 v -26.25 l 0.66,-0.16 c 7.07,-1.988 14.22,-3.508 21.45,-4.531 7.3,-1.129 14.76,-1.68 22.42,-1.68 23.04,0 40.27,5.742 51.52,17.351 11.25,11.602 16.84,29.649 16.84,54.059 v 127.852 h -24.26 l -1.45,-5.743 c -5.82,3.082 -11.52,5.582 -16.87,7.153 h -0.08 c -5.66,1.719 -12.66,2.57 -20.98,2.57 z m 4.18,-23.551 c 5.39,0 10.82,-0.66 16.21,-1.91 5.32,-1.14 11.1,-3.172 17.23,-5.941 v -76.797 c -5.74,-4.371 -11.99,-7.891 -18.87,-10.543 -6.91,-2.617 -13.83,-3.949 -20.7,-3.949 -12.89,0 -21.88,3.98 -27.31,11.992 -5.46,8.09 -8.32,20.117 -8.32,36.058 0,16.79 3.79,29.45 11.21,38.079 7.43,8.711 17.5,13.011 30.55,13.011" /><path
         id="path50"
         style="fill:#000000;fill-opacity:1;fill-rule:evenodd;stroke:none"
         d="m 3822.58,992.461 -0.08,-0.902 c -0.31,-5.43 -1.64,-9.68 -3.83,-12.809 -2.11,-3.129 -5.04,-5.738 -8.83,-7.809 -3,-1.64 -7.57,-2.929 -13.67,-3.871 -6.13,-0.859 -11.83,-1.289 -17.19,-1.289 h -0.93 V 946.52 h 39.76 V 820.469 h -39.76 v -21.41 h 105.19 v 21.41 h -38.98 v 171.992 h -21.68" /><path
         id="path52"
         style="fill:#000000;fill-opacity:1;fill-rule:evenodd;stroke:none"
         d="m 3994.06,995.66 c -22.85,0 -39.88,-8.32 -50.74,-24.801 -10.86,-16.41 -16.25,-41.597 -16.25,-75.629 0,-33.75 5.31,-58.859 15.98,-75.351 10.74,-16.481 27.89,-24.797 51.01,-24.797 22.82,0 39.77,8.199 50.63,24.406 10.93,16.332 16.33,41.684 16.33,76.024 0,33.359 -5.32,58.316 -16.06,75 -10.66,16.718 -27.77,25.148 -50.9,25.148 z m 0,-23 c 8.01,0 14.42,-1.68 19.34,-4.89 5.04,-3.239 9.02,-8 11.95,-14.45 3.05,-6.519 5.08,-14.57 6.1,-24.058 1.13,-9.532 1.67,-20.782 1.67,-33.75 0,-13.133 -0.54,-24.383 -1.67,-33.711 -1.02,-9.219 -3.05,-17.27 -5.98,-24.071 l -0.12,-0.308 c -2.81,-6.442 -6.72,-11.25 -11.8,-14.453 -5.11,-3.199 -11.56,-4.848 -19.49,-4.848 -8.4,0 -15.08,1.719 -20.08,5.078 -4.96,3.403 -8.86,8.321 -11.64,14.852 -3,6.988 -4.96,14.961 -5.89,23.859 -0.98,8.91 -1.45,20.039 -1.45,33.32 0,12.11 0.51,23.25 1.56,33.399 1.1,10.082 3.05,18.211 5.9,24.422 3.01,6.597 7.11,11.48 12.15,14.719 5.08,3.21 11.6,4.89 19.45,4.89" /><path
         id="path54"
         style="fill:#000000;fill-opacity:1;fill-rule:evenodd;stroke:none"
         d="m 4278.2,995.27 c -14.1,0 -26.99,-2.18 -38.63,-6.559 -11.56,-4.41 -21.45,-10.82 -29.69,-19.223 -8.47,-8.629 -14.92,-19.218 -19.41,-31.718 -4.49,-12.5 -6.76,-26.719 -6.76,-42.54 0,-16.64 2.31,-31.32 6.95,-43.98 4.69,-12.621 11.14,-23.012 19.46,-31.25 8.47,-8.398 18.43,-14.57 29.84,-18.551 11.49,-3.867 24.22,-5.789 38.13,-5.789 7.38,0 14.14,0.551 20.27,1.762 6.17,1.098 11.91,2.5 17.15,4.137 6.21,1.992 11.21,3.871 15.04,5.711 3.83,1.789 8.08,3.71 12.77,5.781 l 0.55,0.187 v 31.293 h -3.09 l -0.27,-0.23 c -9.26,-8.281 -19.14,-14.5 -29.69,-18.641 -10.59,-4.14 -21.87,-6.211 -33.98,-6.211 -8.79,0 -17.19,1.492 -25.08,4.422 v -0.039 c -7.85,3.008 -14.65,7.648 -20.55,13.898 -5.62,5.942 -10.27,13.68 -13.91,23.25 -3.55,9.532 -5.31,20.93 -5.31,34.25 0,12.739 1.6,23.95 4.81,33.559 3.32,9.731 7.85,17.731 13.63,24.02 5.98,6.492 12.77,11.211 20.31,14.261 7.66,3.09 16.25,4.692 25.82,4.692 11.68,0 22.58,-1.992 32.82,-5.981 10.23,-3.98 20.62,-10.312 31.05,-19.062 l 0.23,-0.199 h 3.21 v 31.601 l -0.51,0.277 c -12.5,6.25 -23.98,10.622 -34.3,13.122 -10.23,2.5 -20.51,3.75 -30.86,3.75" /><path
         id="path56"
         style="fill:#000000;fill-opacity:1;fill-rule:evenodd;stroke:none"
         d="m 4433.16,948.121 c -20.43,0 -36.83,-6.91 -48.98,-20.699 -12.07,-13.711 -18.05,-32.383 -18.05,-55.863 0,-23.469 5.98,-42.18 18.05,-55.86 12.15,-13.711 28.55,-20.617 48.98,-20.617 20.32,0 36.64,6.906 48.79,20.617 12.15,13.68 18.17,32.391 18.17,55.86 0,23.48 -6.02,42.152 -18.17,55.863 -12.15,13.789 -28.47,20.699 -48.79,20.699 z m 0,-22.652 c 12.7,0 22.43,-4.379 29.54,-13.199 7.03,-8.75 10.66,-22.309 10.66,-40.711 0,-18.008 -3.63,-31.438 -10.78,-40.43 -7.11,-8.938 -16.8,-13.399 -29.42,-13.399 -12.73,0 -22.5,4.5 -29.61,13.52 -7.07,9.059 -10.7,22.5 -10.7,40.309 0,18.402 3.56,31.961 10.55,40.711 7.07,8.82 16.91,13.199 29.76,13.199" /><path
         id="path58"
         style="fill:#000000;fill-opacity:1;fill-rule:evenodd;stroke:none"
         d="m 4627.73,1000.39 v -61.558 c -5.97,3.008 -11.71,5.348 -17.18,6.789 -5.9,1.68 -12.66,2.5 -20.24,2.5 -8.43,0 -16.6,-1.75 -24.49,-5.23 -7.81,-3.442 -14.65,-8.512 -20.55,-15.082 -5.97,-6.758 -10.74,-14.957 -14.25,-24.528 -3.48,-9.609 -5.24,-20.551 -5.24,-32.769 0,-23.481 5.04,-41.883 15.2,-55.282 h 0.07 c 10.24,-13.351 24.15,-20.148 41.49,-20.148 8.91,0 17.19,1.719 24.84,5.117 7.07,3.121 13.83,7.692 20.39,13.121 v -14.261 h 25.94 v 201.331 z m -33.28,-76.171 c 6.02,0 11.53,-0.59 16.57,-1.68 4.88,-1.059 10.5,-3.09 16.71,-5.82 v -80.938 c -5.93,-4.609 -12.22,-8.48 -19.06,-11.441 -6.87,-2.969 -13.71,-4.379 -20.43,-4.379 -12.58,0 -21.48,4.258 -27.11,12.769 -5.66,8.68 -8.59,21.45 -8.59,38.321 0,17.109 3.71,30.238 11.05,39.418 7.35,9.179 17.58,13.75 30.86,13.75" /><path
         id="path60"
         style="fill:#000000;fill-opacity:1;fill-rule:evenodd;stroke:none"
         d="m 4759.65,948.121 c -21.06,0 -38.2,-6.992 -51.21,-20.93 -12.89,-13.953 -19.3,-32.812 -19.3,-56.41 0,-23.832 6.72,-42.422 20.24,-55.551 13.55,-13 32.34,-19.492 56.24,-19.492 9.42,0 18.4,1.172 26.92,3.481 8.51,2.34 16.87,5.23 25.04,8.672 l 0.54,0.23 v 27.859 h -2.53 l -0.28,-0.242 c -4.06,-3.629 -11.01,-7.457 -20.9,-11.359 -9.72,-3.828 -19.37,-5.707 -29.02,-5.707 -7.23,0 -13.87,0.976 -19.92,3.008 h -0.08 c -5.9,1.992 -11.05,5 -15.39,9.019 -4.49,4.071 -8.05,9.34 -10.66,15.711 -2.5,6.172 -3.64,13.512 -3.72,21.75 h 105.32 v 14.031 c 0,20.899 -5.32,37.219 -16.02,48.707 -10.62,11.481 -25.78,17.223 -45.27,17.223 z m -1.25,-21.75 c 12.65,0 21.8,-3.402 27.85,-10.082 6.02,-6.488 8.87,-15.898 9.06,-27.809 h -79.37 c 1.17,10.579 5.04,19.571 12.22,26.75 7.5,7.43 17.5,11.141 30.24,11.141" /><path
         id="path62"
         style="fill:#000000;fill-opacity:1;fill-rule:evenodd;stroke:none"
         d="m 4943.79,872.379 h 129.492 v 22.4219 H 4943.79 Z" /><path
         id="path64"
         style="fill:#000000;fill-opacity:1;fill-rule:evenodd;stroke:none"
         d="m 5183.59,991.801 v -24.422 h 68.21 v -168.32 h 27.22 v 168.32 h 68.21 v 24.422 h -163.64" /><path
         id="path66"
         style="fill:#000000;fill-opacity:1;fill-rule:evenodd;stroke:none"
         d="M 5369.34,1000.39 V 799.059 h 25.97 v 107.39 c 6.41,4.84 13.09,8.903 20.08,12.071 7.07,3.199 13.79,4.8 20.2,4.8 6.32,0 11.44,-0.941 15.31,-2.66 3.83,-1.64 6.76,-4.101 8.79,-7.539 v -0.031 c 1.95,-3.09 3.32,-7.469 4.1,-13.211 0.74,-5.66 1.17,-11.758 1.17,-18.32 v -82.5 h 25.94 v 93.91 c 0,17.652 -4.1,31.332 -12.38,40.863 -8.32,9.527 -20.47,14.289 -36.1,14.289 -8.59,0 -16.95,-1.75 -25.08,-5.312 -7.61,-3.321 -14.92,-8.079 -22.03,-13.789 v 71.37 h -25.97" /><path
         id="path68"
         style="fill:#000000;fill-opacity:1;fill-rule:evenodd;stroke:none"
         d="m 5595.82,948.121 c -21.05,0 -38.16,-6.992 -51.13,-20.93 -12.93,-13.953 -19.42,-32.812 -19.42,-56.41 0,-23.832 6.8,-42.422 20.35,-55.551 13.52,-13 32.31,-19.492 56.26,-19.492 9.37,0 18.35,1.172 26.87,3.481 8.52,2.34 16.84,5.23 24.96,8.672 l 0.63,0.23 v 27.859 h -2.62 l -0.27,-0.242 c -4.03,-3.629 -11.02,-7.457 -20.86,-11.359 -9.73,-3.789 -19.38,-5.707 -28.95,-5.707 -7.26,0 -13.94,0.976 -20,3.008 -5.94,1.992 -11.05,5 -15.39,9.019 h -0.08 c -4.49,4.071 -8.01,9.34 -10.62,15.711 -2.46,6.172 -3.67,13.512 -3.75,21.75 h 105.35 v 14.031 c 0,20.899 -5.35,37.219 -16.06,48.707 -10.62,11.481 -25.78,17.223 -45.27,17.223 z m -1.29,-21.75 c 12.66,0 21.92,-3.402 27.93,-10.082 6.02,-6.488 8.83,-15.898 9.02,-27.809 h -79.41 c 1.21,10.579 5.04,19.571 12.27,26.75 7.5,7.43 17.5,11.141 30.19,11.141" /><path
         id="path70"
         style="fill:#000000;fill-opacity:1;fill-rule:evenodd;stroke:none"
         d="m 6060.7,948.121 c -8.59,0 -16.91,-1.75 -25.08,-5.312 -7.57,-3.321 -14.92,-8.079 -22.03,-13.789 v 15.121 h -25.97 V 799.059 h 25.97 v 107.39 c 6.41,4.84 13.13,8.903 20.12,12.071 7.07,3.199 13.75,4.8 20.2,4.8 6.32,0 11.44,-0.941 15.27,-2.66 3.87,-1.64 6.76,-4.101 8.83,-7.539 v -0.031 c 1.91,-3.09 3.32,-7.469 4.06,-13.211 0.78,-5.66 1.17,-11.758 1.17,-18.32 v -82.5 h 25.98 v 93.91 c 0,17.652 -4.1,31.332 -12.42,40.863 -8.28,9.527 -20.43,14.289 -36.1,14.289" /><path
         id="path72"
         style="fill:#000000;fill-opacity:1;fill-rule:evenodd;stroke:none"
         d="M 6152.73,944.141 V 850.27 c 0,-17.891 4.22,-31.68 12.78,-41.129 8.59,-9.34 20.58,-14.059 35.82,-14.059 9.1,0 17.46,1.797 25.04,5.27 7.03,3.238 14.37,8.046 21.99,13.91 v -15.203 h 25.94 v 145.082 h -25.94 V 836.84 c -6.29,-4.891 -12.97,-8.949 -20.24,-12.11 -7.26,-3.21 -13.9,-4.769 -19.96,-4.769 -6.95,0 -12.22,0.82 -15.66,2.418 -3.52,1.641 -6.33,4.262 -8.55,7.851 -2.15,3.559 -3.6,7.86 -4.26,12.86 -0.67,5.148 -0.98,11.359 -0.98,18.59 v 82.461 h -25.98" /><path
         id="path74"
         style="fill:#000000;fill-opacity:1;fill-rule:evenodd;stroke:none"
         d="M 6321.76,991.801 V 799.059 h 27.3 v 71.171 h 24.42 c 13.75,0 25.15,1.61 34.25,4.93 h 0.08 c 9.1,3.36 16.99,8.43 23.64,15.11 5.39,5.39 9.57,11.679 12.53,18.992 3.05,7.379 4.54,15.347 4.54,23.898 0,11.219 -2.04,20.59 -6.14,28.012 -4.02,7.418 -9.68,13.629 -17.07,18.558 -6.25,4.18 -13.43,7.219 -21.48,9.141 v -0.082 c -8.05,1.992 -17.78,2.973 -29.26,2.973 z m 27.3,-23.711 h 24.18 c 8.01,0 14.57,-0.551 19.65,-1.68 5.2,-1.101 9.81,-2.969 13.79,-5.551 4.57,-3.007 7.97,-6.8 10.2,-11.519 2.22,-4.731 3.32,-10.32 3.32,-16.758 0,-5.551 -0.82,-10.551 -2.5,-14.961 -1.57,-4.383 -4.3,-8.601 -8.25,-12.621 -3.86,-3.91 -8.94,-6.762 -15.23,-8.59 -6.29,-1.762 -14.53,-2.66 -24.73,-2.66 h -20.43 v 74.34" /><path
         id="path76"
         style="fill:#000000;fill-opacity:1;fill-rule:evenodd;stroke:none"
         d="M 6776.02,991.801 V 799.059 h 127.61 v 24.421 h -100.39 v 69.059 h 100.39 v 24.41 h -100.39 v 50.43 h 100.39 v 24.422 h -127.61" /><path
         id="path78"
         style="fill:#000000;fill-opacity:1;fill-rule:evenodd;stroke:none"
         d="m 6923.75,944.141 56.05,-72.692 -56.56,-72.39 h 30.43 l 40.39,54.382 40.2,-54.382 h 32.77 l -1.17,1.531 -55.82,72.109 57.03,71.442 h -30.62 l -40,-53.481 -39.93,53.481 h -32.77" /><path
         id="path80"
         style="fill:#000000;fill-opacity:1;fill-rule:evenodd;stroke:none"
         d="m 7167.77,948.121 c -9.18,0 -17.85,-1.871 -26.01,-5.582 -7.42,-3.359 -14.1,-7.699 -20.2,-12.66 v 14.262 h -25.97 V 746.25 h 25.97 v 59.57 c 5.78,-3.05 11.53,-5.55 17.15,-7.07 6.17,-1.68 12.97,-2.5 20.47,-2.5 8.67,0 16.87,1.762 24.61,5.199 7.77,3.551 14.57,8.59 20.31,15 6.13,6.789 10.9,15 14.26,24.641 3.4,9.769 5.04,20.512 5.04,32.23 0,23.282 -4.85,41.602 -14.65,54.801 -9.73,13.289 -23.48,20 -40.98,20 z m -6.13,-24.84 c 11.99,0 20.66,-4.14 26.41,-12.422 5.7,-8.32 8.63,-20.98 8.63,-38.16 v -0.039 c 0,-17.66 -3.67,-30.82 -11.02,-39.648 -7.34,-8.871 -17.54,-13.242 -30.74,-13.242 -6.17,0 -11.68,0.539 -16.52,1.679 -4.65,1.051 -10.35,3.039 -16.84,5.973 v 80 c 6.21,4.687 12.74,8.558 19.53,11.449 6.92,2.93 13.75,4.367 20.55,4.367 v 0.043" /><path
         id="path82"
         style="fill:#000000;fill-opacity:1;fill-rule:evenodd;stroke:none"
         d="m 7319.53,948.121 c -21.05,0 -38.2,-6.992 -51.21,-20.93 -12.89,-13.953 -19.3,-32.812 -19.3,-56.41 0,-23.832 6.72,-42.422 20.24,-55.551 13.55,-13 32.38,-19.492 56.33,-19.492 9.37,0 18.32,1.172 26.87,3.481 8.52,2.34 16.84,5.23 25,8.672 l 0.55,0.23 v 27.859 h -2.58 l -0.27,-0.242 c -4.03,-3.629 -11.02,-7.457 -20.86,-11.359 -9.73,-3.828 -19.42,-5.707 -29.03,-5.707 -7.26,0 -13.86,0.976 -19.92,3.008 -5.94,1.992 -11.09,5 -15.47,9.019 -4.49,4.071 -8.04,9.34 -10.66,15.711 -2.5,6.172 -3.6,13.512 -3.71,21.75 h 105.31 v 14.031 c 0,20.899 -5.31,37.219 -16.02,48.707 -10.62,11.481 -25.78,17.223 -45.27,17.223 z m -1.29,-21.75 c 12.66,0 21.84,-3.402 27.85,-10.082 h 0.08 c 6.02,-6.488 8.83,-15.898 9.03,-27.809 h -79.38 c 1.17,10.579 5.04,19.571 12.23,26.75 7.5,7.43 17.5,11.141 30.23,11.141 h -0.04" /><path
         id="path84"
         style="fill:#000000;fill-opacity:1;fill-rule:evenodd;stroke:none"
         d="M 7415.47,944.141 V 799.059 h 25.98 v 102.113 c 6.25,5.039 12.77,9.18 19.49,12.348 6.79,3.281 13.86,4.921 21.13,4.921 4.61,0 8.52,-0.242 11.8,-0.671 3.36,-0.309 6.87,-0.93 10.43,-1.75 h 2.42 v 26.402 l -0.78,0.16 c -3.75,0.578 -6.6,0.969 -8.52,1.168 -1.99,0.27 -5,0.391 -9.18,0.391 -7.73,0 -15.35,-1.641 -22.81,-4.922 -6.95,-3.047 -15.04,-8.481 -23.98,-15.508 v 20.43 h -25.98" /><path
         id="path86"
         style="fill:#000000;fill-opacity:1;fill-rule:evenodd;stroke:none"
         d="m 7528.24,985.27 v -41.129 h -16.21 v -22.153 h 16.21 v -75.187 c 0,-17.461 3.87,-30.352 11.68,-38.481 7.81,-8.09 19.22,-12.07 34.03,-12.07 4.21,0 9.06,0.391 14.37,1.172 5.43,0.777 10.39,1.797 14.96,2.969 l 0.7,0.199 v 23.359 h -2.42 l -0.15,-0.117 c -1.84,-0.742 -4.85,-1.684 -9.11,-2.891 -4.21,-1.101 -8.24,-1.64 -12.07,-1.64 -6.68,0 -11.6,0.781 -14.72,2.179 -3.05,1.571 -5.43,3.872 -7.27,7.149 v 0.082 h -0.04 c -1.99,3.559 -3.08,7.34 -3.43,11.41 -0.36,4.219 -0.51,10.078 -0.51,17.578 v 64.289 h 49.72 v 22.153 h -49.72 v 41.129 h -26.02" /><path
         id="path88"
         style="fill:#000000;fill-opacity:1;fill-rule:evenodd;stroke:none"
         d="m 7681.13,947.621 c -9.25,0 -17.65,-1.211 -25.19,-3.641 -7.42,-2.339 -13.64,-5.621 -18.52,-9.718 -5.04,-4.141 -8.87,-8.953 -11.4,-14.262 -2.43,-5.352 -3.64,-11.051 -3.64,-17.07 0,-9.571 2.66,-17.731 8.01,-24.41 5.47,-6.61 14.57,-11.571 27.27,-14.93 4.53,-1.211 9.57,-2.301 15.04,-3.32 h 0.07 c 5.55,-1.051 10,-1.95 13.4,-2.731 9.14,-2.027 15.24,-4.488 18.24,-7.187 3.05,-2.692 4.61,-6.68 4.61,-12.153 0,-7.07 -2.81,-12.027 -8.51,-15.308 -5.78,-3.321 -13.95,-5 -24.42,-5 -8.43,0 -17.26,1.64 -26.48,4.918 -9.22,3.402 -17.62,7.929 -25.12,13.601 l -0.23,0.192 h -2.54 v -28.551 l 0.55,-0.281 c 6.05,-3.04 13.47,-5.86 22.3,-8.43 8.98,-2.5 18.83,-3.719 29.49,-3.719 18.87,0 33.83,4.219 44.81,12.738 11.05,8.551 16.6,19.61 16.6,32.973 0,10.578 -3.09,19.219 -9.34,25.738 -6.25,6.41 -15.04,10.899 -26.36,13.52 -3.72,0.859 -8.32,1.711 -13.91,2.73 -5.43,1.059 -10.39,2.11 -14.84,3.129 -7.93,1.832 -13.6,4.25 -17,7.071 h -0.04 c -3.43,2.812 -5.15,6.91 -5.15,12.609 0,6.41 2.81,10.98 8.63,14.18 5.9,3.32 13.13,5.043 21.84,5.043 8.32,0 16.83,-1.563 25.54,-4.692 8.75,-3.039 16.18,-6.828 22.23,-11.281 l 0.27,-0.199 h 2.5 v 27.3 l -0.5,0.239 c -5.9,3.051 -13.29,5.582 -22.15,7.621 -8.79,2.14 -17.46,3.281 -26.06,3.281" /><path
         id="path90"
         style="fill:#000000;fill-opacity:1;fill-rule:evenodd;stroke:none"
         d="m 5876.17,995.27 c -31.29,0 -56.05,-8.899 -74.1,-26.79 -17.97,-17.781 -26.95,-42.148 -26.95,-72.859 0,-16.75 2.42,-31.402 7.26,-44.019 4.81,-12.5 11.68,-22.973 20.59,-31.372 8.83,-8.32 19.49,-14.531 31.99,-18.671 12.5,-4.137 26.25,-6.207 41.21,-6.207 11.6,0 23.67,1.796 36.02,5.308 12.46,3.641 23.86,7.781 34.33,12.578 l 0.55,0.282 v 83.429 h -26.99 V 827.66 c -5.98,-2.43 -12.85,-4.461 -20.78,-6.058 -8.05,-1.602 -16.18,-2.422 -24.3,-2.422 -22.19,0 -39.57,6.718 -52.38,20.199 -12.78,13.551 -19.22,32.5 -19.22,57.031 0,23.238 6.13,41.559 18.32,55.039 12.3,13.551 28.9,20.313 50.08,20.313 9.41,0 17.81,-0.903 25.19,-2.66 7.46,-1.68 14.1,-3.872 19.92,-6.481 4.81,-2.191 9.77,-4.961 14.77,-8.281 5.04,-3.32 8.87,-6.02 11.48,-8.051 l 0.2,-0.16 h 3.63 v 31.601 l -0.58,0.282 c -13.13,6.289 -25.43,10.738 -36.84,13.316 -11.37,2.652 -22.5,3.981 -33.4,3.981 v -0.039" /><path
         id="path92"
         style="fill:#000000;fill-opacity:1;fill-rule:evenodd;stroke:none"
         d="m 6570.35,995.27 c -31.29,0 -56.01,-8.899 -74.1,-26.79 -17.97,-17.781 -26.95,-42.148 -26.95,-72.859 0,-16.75 2.42,-31.402 7.26,-44.019 4.81,-12.5 11.68,-22.973 20.59,-31.372 8.83,-8.32 19.49,-14.531 31.99,-18.671 12.5,-4.137 26.25,-6.207 41.21,-6.207 11.6,0 23.67,1.796 36.02,5.347 12.46,3.602 23.86,7.742 34.33,12.539 l 0.55,0.282 v 83.429 h -26.99 V 827.66 c -5.98,-2.43 -12.85,-4.461 -20.78,-6.058 -8.05,-1.602 -16.18,-2.422 -24.3,-2.422 -22.19,0 -39.57,6.718 -52.38,20.199 -12.78,13.551 -19.22,32.5 -19.22,57.031 0,23.238 6.13,41.559 18.36,55.039 12.26,13.551 28.86,20.313 50.04,20.313 9.41,0 17.81,-0.903 25.19,-2.66 7.46,-1.68 14.1,-3.872 19.92,-6.481 4.81,-2.191 9.77,-4.961 14.77,-8.281 5.04,-3.32 8.87,-6.02 11.48,-8.051 l 0.24,-0.16 h 3.59 v 31.601 l -0.58,0.282 c -13.09,6.289 -25.39,10.738 -36.84,13.316 -11.37,2.652 -22.46,3.981 -33.4,3.981 v -0.039" /><path
         id="path94"
         style="fill:#000000;fill-opacity:1;fill-rule:nonzero;stroke:none"
         d="m 1333.98,2244.3 c -360.152,0 -569.449,-114.57 -569.449,-114.57 v -585.24 c 84.489,103.6 210.629,186.84 410.429,201.17 374.1,26.88 525.86,98.4 617.5,152.62 27.93,16.52 69.3,49.69 110.98,83.09 v 148.36 c 0,0 -209.3,114.57 -569.46,114.57 z m 0,-59.26 c 322.27,0 509.69,-103.44 509.69,-103.44 l 0.39,-0.27 v -10.04 l -1.05,0.39 c -70.86,29.69 -233.63,84.69 -468.75,84.69 -321.53,0 -508.049,-102.78 -508.6,-103.09 v -367.77 c -14.609,-9.53 -28.551,-19.57 -41.789,-30.04 v 425.82 l 0.391,0.27 c 0,0 187.458,103.44 509.758,103.44 z m 569.57,-358.36 c -131.91,-143.28 -341.48,-285.2 -619.06,-285.78 179.22,-23.75 342.23,8.83 435.67,54.33 93.43,45.51 237.65,154.61 136.99,22.62 -100.7,-132.03 -278.01,-279.41 -733.67,-273.2 144.64,-38.01 361.09,-35 472.93,-6.64 111.83,28.36 219.57,105.35 120.78,4.53 -98.75,-100.86 -299.65,-176.99 -481.41,-171.25 -148.08,4.69 -231.09,11.68 -358.792,-71.99 165.942,-235.589 457.072,-343.601 457.072,-343.601 0,0 569.49,211.18 569.49,687.271 z M 985.199,1115.35 C 1074.02,962.809 1239.45,869.18 1326.8,825.781 l 1.48,-0.781 -1.48,-0.59 c -5.75,-2.379 -9.85,-3.941 -9.85,-3.941 h -0.58 c 0,0 -235.2,87.301 -369.179,277.771 13.039,6.72 25.661,12.38 37.969,17.07 l 0.039,0.04" /></g></g></svg>